<?xml version="1.0" encoding="utf-8"?>
<!-- Generator: Adobe Illustrator 26.0.3, SVG Export Plug-In . SVG Version: 6.00 Build 0)  -->
<svg version="1.1" id="Calque_1" xmlns="http://www.w3.org/2000/svg" xmlns:xlink="http://www.w3.org/1999/xlink" x="0px" y="0px"
	 viewBox="0 0 24 24" enable-background="new 0 0 24 24" xml:space="preserve">
<path fill="#767486" d="M12.8,14H6.2C3.9,14,2,15.9,2,18.2v1.7c0,0.5,0.4,0.8,0.8,0.8s0.8-0.4,0.8-0.8v-1.7c0-1.4,1.1-2.5,2.5-2.5
	h6.7c1.4,0,2.5,1.1,2.5,2.5v1.7c0,0.5,0.4,0.8,0.8,0.8c0.4,0,0.9-0.4,0.9-0.9v-1.7C17,15.8,15.1,14,12.8,14z"/>
<path fill="#767486" d="M9.5,12.3c2.3,0,4.2-1.9,4.2-4.2S11.8,4,9.5,4S5.3,5.8,5.3,8.1S7.2,12.3,9.5,12.3z M9.5,5.6
	c1.4,0,2.5,1.1,2.5,2.5s-1.1,2.5-2.5,2.5S7,9.5,7,8.1S8.1,5.6,9.5,5.6z"/>
<path fill="#767486" d="M18.9,14.1c-0.4-0.1-0.9,0.2-1,0.6c-0.1,0.4,0.2,0.9,0.6,1c1.1,0.3,1.9,1.3,1.9,2.4v1.7
	c0,0.5,0.4,0.8,0.8,0.8c0.4,0,0.8-0.3,0.8-0.8v-1.7C22,16.2,20.7,14.6,18.9,14.1z"/>
<path fill="#767486" d="M18.1,6c-0.6-1-1.5-1.6-2.6-1.9c-0.4-0.1-0.9,0.2-1,0.6c-0.1,0.4,0.2,0.9,0.6,1c0.6,0.2,1.2,0.6,1.5,1.1
	C16.9,7.4,17,8,16.9,8.7c-0.2,0.9-0.9,1.6-1.8,1.9c-0.4,0.1-0.7,0.6-0.6,1c0.1,0.4,0.4,0.6,0.8,0.6c0.1,0,0.1,0,0.2,0
	c1.5-0.4,2.6-1.5,3-3C18.8,8.1,18.7,7,18.1,6z"/>
</svg>
